[
 {
   "ST_CODE": 6311110011,
   "SUBJ_CODE": "MIIC1324",
   "TNAME": "นางสาว จุฑามาศ แซ่อึ้ง",
   "ENAME": "Ms. JUTAMAS SAE-AEUNG",
   "CRSE_CODE": "CPAI",
   "SECT_CODE": "A",
   "EMAIL": "6311110011@mut.ac.th",
   "ENROLL_DATE": "18/06/2022 09:16",
   "FIELD9": ""
 },
 {
   "ST_CODE": 6311110015,
   "SUBJ_CODE": "MIIC1324",
   "TNAME": "นางสาว พิมพ์รัชฎา ชวภณพาณิชย์",
   "ENAME": "Ms. PIMRATCHADA CHAWAPHONPHANIT",
   "CRSE_CODE": "CPAI",
   "SECT_CODE": "A",
   "EMAIL": "6311110015@mut.ac.th",
   "ENROLL_DATE": "18/06/2022 11:25",
   "FIELD9": ""
 },
 {
   "ST_CODE": 6311110206,
   "SUBJ_CODE": "MIIC1324",
   "TNAME": "นาย พันธกานต์ ขาวดอกรัก",
   "ENAME": "Mr. PANTAKARN KOWDOKRAK",
   "CRSE_CODE": "CPAI",
   "SECT_CODE": "A",
   "EMAIL": "6311110206@mut.ac.th",
   "ENROLL_DATE": "26/06/2022 10:49",
   "FIELD9": ""
 },
 {
   "ST_CODE": 6311130001,
   "SUBJ_CODE": "MIIC1324",
   "TNAME": "นาย สุทัศน์ ไพเราะ",
   "ENAME": "Mr. SUTAD PIROH",
   "CRSE_CODE": "CPAI",
   "SECT_CODE": "A",
   "EMAIL": "6311130001@mut.ac.th",
   "ENROLL_DATE": "18/06/2022 14:34",
   "FIELD9": ""
 },
 {
   "ST_CODE": 6311130002,
   "SUBJ_CODE": "MIIC1324",
   "TNAME": "นาย เกริกเกียรติ สีหะวงศ์",
   "ENAME": "Mr. KOEKKIAD SEEHAWONG",
   "CRSE_CODE": "CPAI",
   "SECT_CODE": "A",
   "EMAIL": "6311130002@mut.ac.th",
   "ENROLL_DATE": "18/06/2022 09:39",
   "FIELD9": ""
 },
 {
   "ST_CODE": 6311130003,
   "SUBJ_CODE": "MIIC1324",
   "TNAME": "นางสาว อพัชชา นุชเปล่ง",
   "ENAME": "Ms. APATCHA NUCHPLENG",
   "CRSE_CODE": "CPAI",
   "SECT_CODE": "A",
   "EMAIL": "6311130003@mut.ac.th",
   "ENROLL_DATE": "18/06/2022 15:59",
   "FIELD9": ""
 },
 {
   "ST_CODE": 6311130004,
   "SUBJ_CODE": "MIIC1324",
   "TNAME": "นาย วรินทร ภรพีรวัส",
   "ENAME": "Mr. WARINTORN PORNPEERAWAT",
   "CRSE_CODE": "CPAI",
   "SECT_CODE": "A",
   "EMAIL": "6311130004@mut.ac.th",
   "ENROLL_DATE": "19/06/2022 11:33",
   "FIELD9": ""
 },
 {
   "ST_CODE": 6311130006,
   "SUBJ_CODE": "MIIC1324",
   "TNAME": "นางสาว พรสุดา ไชยรัตน์",
   "ENAME": "Ms. PORNSUDA CHAIYARAT",
   "CRSE_CODE": "CPAI",
   "SECT_CODE": "A",
   "EMAIL": "6311130006@mut.ac.th",
   "ENROLL_DATE": "18/06/2022 18:43",
   "FIELD9": ""
 },
 {
   "ST_CODE": 6311130007,
   "SUBJ_CODE": "MIIC1324",
   "TNAME": "นาย เอกนคร หมัดปัญยัง",
   "ENAME": "Mr. EKNAKORN MADPANYANG",
   "CRSE_CODE": "CPAI",
   "SECT_CODE": "A",
   "EMAIL": "6311130007@mut.ac.th",
   "ENROLL_DATE": "18/06/2022 18:11",
   "FIELD9": ""
 },
 {
   "ST_CODE": 6311130008,
   "SUBJ_CODE": "MIIC1324",
   "TNAME": "นาย สุกมล ตงสาลี",
   "ENAME": "Mr. SUKKAMON TONGSALEE",
   "CRSE_CODE": "CPAI",
   "SECT_CODE": "A",
   "EMAIL": "6311130008@mut.ac.th",
   "ENROLL_DATE": "28/06/2022 14:35",
   "FIELD9": ""
 },
 {
   "ST_CODE": 6311130010,
   "SUBJ_CODE": "MIIC1324",
   "TNAME": "นางสาว ญาณิศา มหมัดซอและห์",
   "ENAME": "Ms. YANISA MAMADSOLAE",
   "CRSE_CODE": "CPAI",
   "SECT_CODE": "A",
   "EMAIL": "6311130010@mut.ac.th",
   "ENROLL_DATE": "18/06/2022 09:19",
   "FIELD9": ""
 },
 {
   "ST_CODE": 6311130012,
   "SUBJ_CODE": "MIIC1324",
   "TNAME": "นาย ชนาภัทร ปุญญพัตน์ปีย์วรา",
   "ENAME": "Mr. CHANAPAT PHUNYAPEEWARA",
   "CRSE_CODE": "CPAI",
   "SECT_CODE": "A",
   "EMAIL": "6311130012@mut.ac.th",
   "ENROLL_DATE": "18/06/2022 13:58",
   "FIELD9": ""
 },
 {
   "ST_CODE": 6311130013,
   "SUBJ_CODE": "MIIC1324",
   "TNAME": "นาย ภูมิเลิศ ทิพย์ประจักร",
   "ENAME": "Mr. BHUMILERT THIPRAJAK",
   "CRSE_CODE": "CPAI",
   "SECT_CODE": "A",
   "EMAIL": "6311130013@mut.ac.th",
   "ENROLL_DATE": "18/06/2022 14:13",
   "FIELD9": ""
 },
 {
   "ST_CODE": 6311130014,
   "SUBJ_CODE": "MIIC1324",
   "TNAME": "นาย จิรายุทธ ภูมิชัย",
   "ENAME": "Mr. JIRAYUT PHUMCHAI",
   "CRSE_CODE": "CPAI",
   "SECT_CODE": "A",
   "EMAIL": "6311130014@mut.ac.th",
   "ENROLL_DATE": "18/06/2022 11:57",
   "FIELD9": ""
 },
 {
   "ST_CODE": 6311130015,
   "SUBJ_CODE": "MIIC1324",
   "TNAME": "นาย กัญจน์ มณีอินทร์",
   "ENAME": "Mr. KUN MANEEIN",
   "CRSE_CODE": "CPAI",
   "SECT_CODE": "A",
   "EMAIL": "6311130015@mut.ac.th",
   "ENROLL_DATE": "18/06/2022 09:49",
   "FIELD9": ""
 },
 {
   "ST_CODE": 6311130016,
   "SUBJ_CODE": "MIIC1324",
   "TNAME": "นาย ปรวัฒน์ ครุฑศรี",
   "ENAME": "Mr. PORAWAT KRUTSRI",
   "CRSE_CODE": "CPAI",
   "SECT_CODE": "A",
   "EMAIL": "6311130016@mut.ac.th",
   "ENROLL_DATE": "18/06/2022 14:11",
   "FIELD9": ""
 },
 {
   "ST_CODE": 6311130017,
   "SUBJ_CODE": "MIIC1324",
   "TNAME": "นาย พงศกร รักเพียร",
   "ENAME": "Mr. PONGSAKRON RUKPIAN",
   "CRSE_CODE": "CPAI",
   "SECT_CODE": "A",
   "EMAIL": "6311130017@mut.ac.th",
   "ENROLL_DATE": "18/06/2022 09:20",
   "FIELD9": ""
 },
 {
   "ST_CODE": 6311130018,
   "SUBJ_CODE": "MIIC1324",
   "TNAME": "นาย จิรวัฒน์ ธนรัฐณัฐกรณ์",
   "ENAME": "Mr. JIRAWAT THANARATNATTHAKORN",
   "CRSE_CODE": "CPAI",
   "SECT_CODE": "A",
   "EMAIL": "6311130018@mut.ac.th",
   "ENROLL_DATE": "21/06/2022 12:04",
   "FIELD9": ""
 },
 {
   "ST_CODE": 6311130019,
   "SUBJ_CODE": "MIIC1324",
   "TNAME": "นาย วัฒนกร วงศ์อาสา",
   "ENAME": "Mr. VATTANAGON VONGAR-SA",
   "CRSE_CODE": "CPAI",
   "SECT_CODE": "A",
   "EMAIL": "6311130019@mut.ac.th",
   "ENROLL_DATE": "18/06/2022 12:49",
   "FIELD9": ""
 },
 {
   "ST_CODE": 6311130021,
   "SUBJ_CODE": "MIIC1324",
   "TNAME": "นาย วชิรวิชญ์ บุญนุช",
   "ENAME": "Mr. WACHIRAVIT BOONNUCH",
   "CRSE_CODE": "CPAI",
   "SECT_CODE": "A",
   "EMAIL": "6311130021@mut.ac.th",
   "ENROLL_DATE": "18/06/2022 11:33",
   "FIELD9": ""
 },
 {
   "ST_CODE": 6311130022,
   "SUBJ_CODE": "MIIC1324",
   "TNAME": "นาย ระพีพล จูเฮง",
   "ENAME": "Mr. RAPEEPON JUHENG",
   "CRSE_CODE": "CPAI",
   "SECT_CODE": "A",
   "EMAIL": "6311130022@mut.ac.th",
   "ENROLL_DATE": "21/06/2022 09:54",
   "FIELD9": ""
 },
 {
   "ST_CODE": 6311130023,
   "SUBJ_CODE": "MIIC1324",
   "TNAME": "นาย ธีระพัฒน์ จูเฮง",
   "ENAME": "Mr. TEERAPAT JUHENG",
   "CRSE_CODE": "CPAI",
   "SECT_CODE": "A",
   "EMAIL": "6311130023@mut.ac.th",
   "ENROLL_DATE": "21/06/2022 09:54",
   "FIELD9": ""
 },
 {
   "ST_CODE": 6311130024,
   "SUBJ_CODE": "MIIC1324",
   "TNAME": "นางสาว นันทิชา เลี้ยงบุญชู",
   "ENAME": "Ms. NUNTICHA LEANGBOONCHU",
   "CRSE_CODE": "CPAI",
   "SECT_CODE": "A",
   "EMAIL": "6311130024@mut.ac.th",
   "ENROLL_DATE": "18/06/2022 09:13",
   "FIELD9": ""
 },
 {
   "ST_CODE": 6311130025,
   "SUBJ_CODE": "MIIC1324",
   "TNAME": "นางสาว ปิยะธิดา เรืองแสน",
   "ENAME": "Ms. PIYATHIDA RUEANGSAN",
   "CRSE_CODE": "CPAI",
   "SECT_CODE": "A",
   "EMAIL": "6311130025@mut.ac.th",
   "ENROLL_DATE": "21/06/2022 10:47",
   "FIELD9": ""
 },
 {
   "ST_CODE": 6311130026,
   "SUBJ_CODE": "MIIC1324",
   "TNAME": "นาย จิณณวิทย์ อนันต์ปฏิเวธ",
   "ENAME": "Mr. JINNAWIT ANANPATIWET",
   "CRSE_CODE": "CPAI",
   "SECT_CODE": "A",
   "EMAIL": "6311130026@mut.ac.th",
   "ENROLL_DATE": "18/06/2022 10:09",
   "FIELD9": ""
 },
 {
   "ST_CODE": 6311130027,
   "SUBJ_CODE": "MIIC1324",
   "TNAME": "นางสาว เปรมวดี สำนักพงษ์",
   "ENAME": "Ms. PREMWADEE SAMNAKPHONG",
   "CRSE_CODE": "CPAI",
   "SECT_CODE": "A",
   "EMAIL": "6311130027@mut.ac.th",
   "ENROLL_DATE": "18/06/2022 13:43",
   "FIELD9": ""
 },
 {
   "ST_CODE": 6311130028,
   "SUBJ_CODE": "MIIC1324",
   "TNAME": "นาย รชต ยอนถวิล",
   "ENAME": "Mr. RACHATA YORNTAWIN",
   "CRSE_CODE": "CPAI",
   "SECT_CODE": "A",
   "EMAIL": "6311130028@mut.ac.th",
   "ENROLL_DATE": "18/06/2022 16:40",
   "FIELD9": ""
 },
 {
   "ST_CODE": 6311130029,
   "SUBJ_CODE": "MIIC1324",
   "TNAME": "นาย กองบุณย์ อยู่คงแก้ว",
   "ENAME": "Mr. KONGBOON YOUKONGKAEW",
   "CRSE_CODE": "CPAI",
   "SECT_CODE": "A",
   "EMAIL": "6311130029@mut.ac.th",
   "ENROLL_DATE": "18/06/2022 20:00",
   "FIELD9": ""
 },
 {
   "ST_CODE": 6311130030,
   "SUBJ_CODE": "MIIC1324",
   "TNAME": "นางสาว วารีรัตน์ เอี่ยมน้อย",
   "ENAME": "Ms. WARERAT AEMNOI",
   "CRSE_CODE": "CPAI",
   "SECT_CODE": "A",
   "EMAIL": "6311130030@mut.ac.th",
   "ENROLL_DATE": "18/06/2022 09:30",
   "FIELD9": ""
 },
 {
   "ST_CODE": 6311130031,
   "SUBJ_CODE": "MIIC1324",
   "TNAME": "นาย เขมทัต นิเลาะ",
   "ENAME": "Mr. KHEMMATAT NILOH",
   "CRSE_CODE": "CPAI",
   "SECT_CODE": "A",
   "EMAIL": "6311130031@mut.ac.th",
   "ENROLL_DATE": "18/06/2022 19:40",
   "FIELD9": ""
 },
 {
   "ST_CODE": 6311130032,
   "SUBJ_CODE": "MIIC1324",
   "TNAME": "นาย กิตติศักดิ์ พิมานันท์",
   "ENAME": "Mr. KITTISAK PIMANUN",
   "CRSE_CODE": "CPAI",
   "SECT_CODE": "A",
   "EMAIL": "6311130032@mut.ac.th",
   "ENROLL_DATE": "18/06/2022 20:31",
   "FIELD9": ""
 },
 {
   "ST_CODE": 6311130034,
   "SUBJ_CODE": "MIIC1324",
   "TNAME": "นาย อิทธิพล ธูปไธสง",
   "ENAME": "Mr. ITTIPOL TUPTISONG",
   "CRSE_CODE": "CPAI",
   "SECT_CODE": "A",
   "EMAIL": "6311130034@mut.ac.th",
   "ENROLL_DATE": "20/06/2022 17:26",
   "FIELD9": ""
 },
 {
   "ST_CODE": 6311130035,
   "SUBJ_CODE": "MIIC1324",
   "TNAME": "นาย ชานน เพชรราช",
   "ENAME": "Mr. CHANON PHETRACH",
   "CRSE_CODE": "CPAI",
   "SECT_CODE": "A",
   "EMAIL": "6311130035@mut.ac.th",
   "ENROLL_DATE": "18/06/2022 09:18",
   "FIELD9": ""
 },
 {
   "ST_CODE": 6311130038,
   "SUBJ_CODE": "MIIC1324",
   "TNAME": "นาย ชญานนท์ ดีทองอ่อน",
   "ENAME": "Mr. CHAYANON DEETHONGON",
   "CRSE_CODE": "CPAI",
   "SECT_CODE": "A",
   "EMAIL": "6311130038@mut.ac.th",
   "ENROLL_DATE": "20/06/2022 22:10",
   "FIELD9": ""
 },
 {
   "ST_CODE": 6311130040,
   "SUBJ_CODE": "MIIC1324",
   "TNAME": "นางสาว ธรรมวิสาข์ มากเมือง",
   "ENAME": "Ms. THAMVISA MAKMUANG",
   "CRSE_CODE": "CPAI",
   "SECT_CODE": "A",
   "EMAIL": "6311130040@mut.ac.th",
   "ENROLL_DATE": "18/06/2022 11:27",
   "FIELD9": ""
 },
 {
   "ST_CODE": 6311130041,
   "SUBJ_CODE": "MIIC1324",
   "TNAME": "นางสาว ภัณฑิรา ซาฟีอี",
   "ENAME": "Ms. PUNTIRA SAFE-E",
   "CRSE_CODE": "CPAI",
   "SECT_CODE": "A",
   "EMAIL": "6311130041@mut.ac.th",
   "ENROLL_DATE": "18/06/2022 12:52",
   "FIELD9": ""
 },
 {
   "ST_CODE": 6311850002,
   "SUBJ_CODE": "MIIC1324",
   "TNAME": "นาย ธนะภัทร วิเชียรฉาย",
   "ENAME": "Mr. THANAPAT VICHIANCHAI",
   "CRSE_CODE": "CPAI",
   "SECT_CODE": "A",
   "EMAIL": "6311850002@mut.ac.th",
   "ENROLL_DATE": "18/06/2022 11:27",
   "FIELD9": ""
 },
 {
   "ST_CODE": 6411210003,
   "SUBJ_CODE": "MIIC1324",
   "TNAME": "นาย เกริกพล สุขลิตร",
   "ENAME": "Mr. GERGPOL SUKLIT",
   "CRSE_CODE": "CPA",
   "SECT_CODE": "A",
   "EMAIL": "6411210003@mut.ac.th",
   "ENROLL_DATE": "22/06/2022 13:40",
   "FIELD9": ""
 },
 {
   "ST_CODE": 6411850001,
   "SUBJ_CODE": "MIIC1324",
   "TNAME": "นาย ปฏิภาณ แต้มกระโทก",
   "ENAME": "Mr. PATIPAN TAMKRATOK",
   "CRSE_CODE": "CPA",
   "SECT_CODE": "A",
   "EMAIL": "6411850001@mut.ac.th",
   "ENROLL_DATE": "20/06/2022 16:10",
   "FIELD9": ""
 },
 {
   "ST_CODE": 6411850002,
   "SUBJ_CODE": "MIIC1324",
   "TNAME": "นาย ณัฐวัตร แสงศรี",
   "ENAME": "Mr. NATTAWAT SANGSRI",
   "CRSE_CODE": "CPA",
   "SECT_CODE": "A",
   "EMAIL": "6411850002@mut.ac.th",
   "ENROLL_DATE": "19/06/2022 09:05",
   "FIELD9": ""
 },
 {
   "ST_CODE": 6411850003,
   "SUBJ_CODE": "MIIC1324",
   "TNAME": "นาย สหัสวรรษ อู่เงิน",
   "ENAME": "Mr. SAHATSAWAT UNGOEN",
   "CRSE_CODE": "CPA",
   "SECT_CODE": "A",
   "EMAIL": "6411850003@mut.ac.th",
   "ENROLL_DATE": "21/06/2022 12:30",
   "FIELD9": ""
 },
 {
   "ST_CODE": 6411850005,
   "SUBJ_CODE": "MIIC1324",
   "TNAME": "นาย นรินทร์ เครื่องพาที",
   "ENAME": "Mr. NARIN KRUENGPATHEE",
   "CRSE_CODE": "CPA",
   "SECT_CODE": "A",
   "EMAIL": "6411850005@mut.ac.th",
   "ENROLL_DATE": "25/06/2022 09:46",
   "FIELD9": ""
 },
 {
   "ST_CODE": 6411850006,
   "SUBJ_CODE": "MIIC1324",
   "TNAME": "นาย พงศ์พัฒน์ ตะแปลกาเซ็ม",
   "ENAME": "Mr. PHONGPAT TAPLAEKASEM",
   "CRSE_CODE": "CPA",
   "SECT_CODE": "A",
   "EMAIL": "6411850006@mut.ac.th",
   "ENROLL_DATE": "21/06/2022 10:51",
   "FIELD9": ""
 },
 {
   "ST_CODE": 6411850010,
   "SUBJ_CODE": "MIIC1324",
   "TNAME": "นางสาว ณัฐชยา เจวะ",
   "ENAME": "Ms. NATCHAYA JEWA",
   "CRSE_CODE": "CPA",
   "SECT_CODE": "A",
   "EMAIL": "6411850010@mut.ac.th",
   "ENROLL_DATE": "21/06/2022 12:32",
   "FIELD9": ""
 },
 {
   "ST_CODE": 6411850011,
   "SUBJ_CODE": "MIIC1324",
   "TNAME": "นาย วริศธีรัตม์ ทัศทอง",
   "ENAME": "Mr. WARITTERAT THUSTHONG",
   "CRSE_CODE": "CPA",
   "SECT_CODE": "A",
   "EMAIL": "6411850011@mut.ac.th",
   "ENROLL_DATE": "21/06/2022 13:42",
   "FIELD9": ""
 },
 {
   "ST_CODE": 6411850012,
   "SUBJ_CODE": "MIIC1324",
   "TNAME": "นาย อรรถพล อักษรทิพย์",
   "ENAME": "Mr. ATTHAPOL AUKSORNTHIP",
   "CRSE_CODE": "CPA",
   "SECT_CODE": "A",
   "EMAIL": "6411850012@mut.ac.th",
   "ENROLL_DATE": "22/06/2022 13:12",
   "FIELD9": ""
 },
 {
   "ST_CODE": 6411850014,
   "SUBJ_CODE": "MIIC1324",
   "TNAME": "นาย ณัฐกร หนูแก้ว",
   "ENAME": "Mr. NATTAKORN NOOKAEW",
   "CRSE_CODE": "CPA",
   "SECT_CODE": "A",
   "EMAIL": "6411850014@mut.ac.th",
   "ENROLL_DATE": "19/06/2022 11:43",
   "FIELD9": ""
 },
 {
   "ST_CODE": 6311130009,
   "SUBJ_CODE": "MIIC1324",
   "TNAME": "นางสาว กมลพร ต้องกมลวัฒน์",
   "ENAME": "Ms. KAMONPORN TONGKAMONWAT",
   "CRSE_CODE": "CPAI",
   "SECT_CODE": "B",
   "EMAIL": "6311130009@mut.ac.th",
   "ENROLL_DATE": "22/06/2022 13:40",
   "FIELD9": ""
 },
 {
   "ST_CODE": 6311130020,
   "SUBJ_CODE": "MIIC1324",
   "TNAME": "นางสาว ฐิติวรดา มาสืบชาติ",
   "ENAME": "Ms. THITIWORADA MASUBECHAT",
   "CRSE_CODE": "CPAI",
   "SECT_CODE": "B",
   "EMAIL": "6311130020@mut.ac.th",
   "ENROLL_DATE": "22/06/2022 13:42",
   "FIELD9": ""
 },
 {
   "ST_CODE": 6311130037,
   "SUBJ_CODE": "MIIC1324",
   "TNAME": "นางสาว พลอยวรีย์ จินดาเพ็ง",
   "ENAME": "Ms. PLOYWAREE JINDAPENG",
   "CRSE_CODE": "CPAI",
   "SECT_CODE": "B",
   "EMAIL": "6311130037@mut.ac.th",
   "ENROLL_DATE": "22/06/2022 13:39",
   "FIELD9": ""
 },
 {
   "ST_CODE": 6411860002,
   "SUBJ_CODE": "MIIC1324",
   "TNAME": "นาย ภานุพงศ์ ชัยเนตร",
   "ENAME": "Mr. PANUPONG CHAINET",
   "CRSE_CODE": "CPA+",
   "SECT_CODE": "B",
   "EMAIL": "6411860002@mut.ac.th",
   "ENROLL_DATE": "21/06/2022 12:59",
   "FIELD9": ""
 },
 {
   "ST_CODE": 6411860003,
   "SUBJ_CODE": "MIIC1324",
   "TNAME": "นางสาว ยุภาดา ธาราพัฒน์",
   "ENAME": "Ms. YUPHADA THARAPHAT",
   "CRSE_CODE": "CPA+",
   "SECT_CODE": "B",
   "EMAIL": "6411860003@mut.ac.th",
   "ENROLL_DATE": "18/06/2022 16:05",
   "FIELD9": ""
 },
 {
   "ST_CODE": 6411860004,
   "SUBJ_CODE": "MIIC1324",
   "TNAME": "นาย วินัย โดดกระโทก",
   "ENAME": "Mr. WINAI DODKRATOK",
   "CRSE_CODE": "CPA+",
   "SECT_CODE": "B",
   "EMAIL": "6411860004@mut.ac.th",
   "ENROLL_DATE": "18/06/2022 12:49",
   "FIELD9": ""
 },
 {
   "ST_CODE": 6411860005,
   "SUBJ_CODE": "MIIC1324",
   "TNAME": "นางสาว ณัฐพร ทศดอน",
   "ENAME": "Ms. NATTAPORN TOSDON",
   "CRSE_CODE": "CPA+",
   "SECT_CODE": "B",
   "EMAIL": "6411860005@mut.ac.th",
   "ENROLL_DATE": "18/06/2022 16:03",
   "FIELD9": ""
 },
 {
   "ST_CODE": 6411860006,
   "SUBJ_CODE": "MIIC1324",
   "TNAME": "นาย จิรายุ ปานทอง",
   "ENAME": "Mr. JIRAYU PANTONG",
   "CRSE_CODE": "CPA+",
   "SECT_CODE": "B",
   "EMAIL": "6411860006@mut.ac.th",
   "ENROLL_DATE": "18/06/2022 16:05",
   "FIELD9": ""
 },
 {
   "ST_CODE": 6411860007,
   "SUBJ_CODE": "MIIC1324",
   "TNAME": "นาย ปิยากร พงษ์เกตุกรณ์",
   "ENAME": "Mr. PIYAKORN PONGKEATKORN",
   "CRSE_CODE": "CPA+",
   "SECT_CODE": "B",
   "EMAIL": "6411860007@mut.ac.th",
   "ENROLL_DATE": "18/06/2022 09:17",
   "FIELD9": ""
 },
 {
   "ST_CODE": 6411860009,
   "SUBJ_CODE": "MIIC1324",
   "TNAME": "นาย ทวิชกร สิริทรัพย์วงศ์",
   "ENAME": "Mr. TAWICHAKORN SIRISAPWONG",
   "CRSE_CODE": "CPA+",
   "SECT_CODE": "B",
   "EMAIL": "6411860009@mut.ac.th",
   "ENROLL_DATE": "18/06/2022 10:00",
   "FIELD9": ""
 },
 {
   "ST_CODE": 6411860015,
   "SUBJ_CODE": "MIIC1324",
   "TNAME": "นาย เจมส์ศักดิ์ กันยสุด",
   "ENAME": "Mr. JAMESAK KANYASUD",
   "CRSE_CODE": "CPA+",
   "SECT_CODE": "B",
   "EMAIL": "6411860015@mut.ac.th",
   "ENROLL_DATE": "26/06/2022 12:48",
   "FIELD9": ""
 },
 {
   "ST_CODE": 6411860016,
   "SUBJ_CODE": "MIIC1324",
   "TNAME": "นาย จักรกฤษณ์ จินตเศรณี",
   "ENAME": "Mr. CHAKKRIT JINTASARANEE",
   "CRSE_CODE": "CPA+",
   "SECT_CODE": "B",
   "EMAIL": "6411860016@mut.ac.th",
   "ENROLL_DATE": "20/06/2022 11:27",
   "FIELD9": ""
 },
 {
   "ST_CODE": 6411860017,
   "SUBJ_CODE": "MIIC1324",
   "TNAME": "นาย ภัทรพล ชูณรงค์",
   "ENAME": "Mr. PATTHARAPOL CHOONARONG",
   "CRSE_CODE": "CPA+",
   "SECT_CODE": "B",
   "EMAIL": "6411860017@mut.ac.th",
   "ENROLL_DATE": "19/06/2022 13:31",
   "FIELD9": ""
 }
]